Get download numbers by application for a show — op3_top_show_apps • op3r
…
    Value

tibble data frame with the following columns:
show_uuid: OP3 show UUID

app_name: Name of podcast application

value: Number of downloads in the last three calendar months

    Examples

# Requires API token

op3_top_show_apps(show_id = "bb28afcc-137e-5c66-b231-4ffad7979b44")
#> # A tibble: 33 × 3
#>    app_name          value show_uuid                       
#>    <chr>             <int> <chr>                           
#>  1 Apple Podcasts      745 c008c9c7cfe847dda55cfdde54a22154
#>  2 Overcast            533 c008c9c7cfe847dda55cfdde54a22154
#>  3 Pocket Casts        341 c008c9c7cfe847dda55cfdde54a22154
#>  4 gPodder             339 c008c9c7cfe847dda55cfdde54a22154
#>  5 Podcast Addict      262 c008c9c7cfe847dda55cfdde54a22154
#>  6 YouTube Music       163 c008c9c7cfe847dda55cfdde54a22154
#>  7 Google Podcasts     153 c008c9c7cfe847dda55cfdde54a22154
#>  8 AntennaPod          125 c008c9c7cfe847dda55cfdde54a22154
#>  9 Snipd                91 c008c9c7cfe847dda55cfdde54a22154
#> 10 Unknown Apple App    86 c008c9c7cfe847dda55cfdde54a22154
#> # ℹ 23 more rows
…
