Get log record metadata for OP3 service — op3_hits • op3r
…
# records based on specific podcast episode
op3_hits(url = "https://op3.dev/e/serve.podhome.fm/episode/99cfd30f-e40c-426a-3557-08dc4ea63bb0/63851340872787683054574074-0a1f-4951-8f2a-9084678c6604v1.mp3")
#> # A tibble: 100 × 16
#>    time                uuid      hashedIpAddress method url   userAgent edgeColo
#>    <dttm>              <chr>     <chr>           <chr>  <chr> <chr>     <chr>   
#>  1 2024-05-25 18:11:30 a11378c4… be723a50c9306d… GET    http… Podcasts… DFW     
#>  2 2024-05-25 16:01:02 92326e56… d02c4cda211ac8… HEAD   http… iTMS      SJC     
#>  3 2024-05-25 14:38:35 5062341d… 0d48c6b69d4fe3… GET    http… CastBox/… FRA     
#>  4 2024-05-25 11:57:05 e2ff1880… b7bc8dca9ca126… GET    http… CastBox/… LHR     
#>  5 2024-05-25 11:57:04 62597cd8… b7bc8dca9ca126… GET    http… CastBox/… LHR     
#>  6 2024-05-25 09:17:36 247467ca… aba6ac051add9a… HEAD   http… iTMS      SEA     
#>  7 2024-05-25 06:39:17 046c6786… 8d24f67d8898e3… GET    http… atc/1.0   MCI     
#>  8 2024-05-25 04:43:20 be539b09… 77f0f5aedc514b… HEAD   http… Apache-H… FRA     
#>  9 2024-05-24 18:23:44 d4358d4a… 042bd8df1bf596… GET    http… CastBox/… FRA     
#> 10 2024-05-24 18:23:34 f8147f06… 042bd8df1bf596… GET    http… CastBox/… EWR     
#> # ℹ 90 more rows
#> # ℹ 9 more variables: continent <chr>, country <chr>, timezone <chr>,
#> #   regionCode <chr>, region <chr>, metroCode <chr>, range <chr>, xpsId <chr>,
#> #   referer <chr>

# records for multiple episodes using a wildcard in URL
op3_hits(url = "https://op3.dev/e/serve.podhome.fm/episode/99cfd30f-e40c-426a-3557-08dc4ea63bb0/*")
#> # A tibble: 100 × 16
#>    time                uuid   hashedIpAddress method url   userAgent range xpsId
#>    <dttm>              <chr>  <chr>           <chr>  <chr> <chr>     <chr> <chr>
#>  1 2024-05-25 18:40:30 20798… 3288d89f797364… GET    http… AppleCor… byte… C69E…
#>  2 2024-05-25 18:40:02 3cb7a… 3288d89f797364… GET    http… AppleCor… byte… C69E…
#>  3 2024-05-25 18:35:14 dea0f… 3288d89f797364… GET    http… AppleCor… byte… C69E…
#>  4 2024-05-25 18:11:30 a1137… be723a50c9306d… GET    http… Podcasts… NA    NA   
#>  5 2024-05-25 18:00:33 b0992… 3288d89f797364… GET    http… AppleCor… byte… E8C5…
#>  6 2024-05-25 17:59:33 d5e4e… 3288d89f797364… GET    http… AppleCor… byte… E8C5…
#>  7 2024-05-25 17:58:04 ebbd6… 3288d89f797364… GET    http… AppleCor… byte… E8C5…
#>  8 2024-05-25 17:56:22 8c41e… 3288d89f797364… GET    http… AppleCor… byte… E8C5…
#>  9 2024-05-25 17:56:22 d969a… 3288d89f797364… GET    http… AppleCor… byte… E8C5…
#> 10 2024-05-25 17:56:20 022bb… 3288d89f797364… GET    http… AppleCor… byte… E8C5…
#> # ℹ 90 more rows
#> # ℹ 8 more variables: edgeColo <chr>, continent <chr>, country <chr>,
#> #   timezone <chr>, regionCode <chr>, region <chr>, metroCode <chr>,
#> #   referer <chr>
…
