Introduction to op3r • op3r
…
Additional download metrics are available based on applications used
to play the podcast. The op3_too_showsapp() function
obtains metrics over the last three calendar months from the time of
execution:

op3_top_show_apps(show_id = show_id)
#> # A tibble: 33 × 3
#>    app_name          value show_uuid                       
#>    <chr>             <int> <chr>                           
#>  1 Apple Podcasts      745 c008c9c7cfe847dda55cfdde54a22154
#>  2 Overcast            533 c008c9c7cfe847dda55cfdde54a22154
#>  3 Pocket Casts        341 c008c9c7cfe847dda55cfdde54a22154
#>  4 gPodder             339 c008c9c7cfe847dda55cfdde54a22154
#>  5 Podcast Addict      262 c008c9c7cfe847dda55cfdde54a22154
#>  6 YouTube Music       163 c008c9c7cfe847dda55cfdde54a22154
#>  7 Google Podcasts     153 c008c9c7cfe847dda55cfdde54a22154
#>  8 AntennaPod          125 c008c9c7cfe847dda55cfdde54a22154
#>  9 Snipd                91 c008c9c7cfe847dda55cfdde54a22154
#> 10 Unknown Apple App    86 c008c9c7cfe847dda55cfdde54a22154
#> # ℹ 23 more rows
…
